{
    "/dist/js/attendance/index.js": "/dist/js/attendance/index.js",
    "/dist/js/attendance/indexDetail.js": "/dist/js/attendance/indexDetail.js",
    "/dist/js/attendance/registroAtenciones.js": "/dist/js/attendance/registroAtenciones.js",
    "/dist/js/branch/create.js": "/dist/js/branch/create.js",
    "/dist/js/branch/edit.js": "/dist/js/branch/edit.js",
    "/dist/js/branch/index.js": "/dist/js/branch/index.js",
    "/dist/js/cashdesk/create.js": "/dist/js/cashdesk/create.js",
    "/dist/js/cashdesk/index.js": "/dist/js/cashdesk/index.js",
    "/dist/js/company/create.js": "/dist/js/company/create.js",
    "/dist/js/company/edit.js": "/dist/js/company/edit.js",
    "/dist/js/company/index.js": "/dist/js/company/index.js",
    "/dist/js/customer/create.js": "/dist/js/customer/create.js",
    "/dist/js/customer/edit.js": "/dist/js/customer/edit.js",
    "/dist/js/customer/index.js": "/dist/js/customer/index.js",
    "/dist/js/employed/create.js": "/dist/js/employed/create.js",
    "/dist/js/employed/index.js": "/dist/js/employed/index.js",
    "/dist/js/home/home.js": "/dist/js/home/home.js",
    "/dist/js/home/login.js": "/dist/js/home/login.js",
    "/dist/js/home/perfil.js": "/dist/js/home/perfil.js",
    "/dist/js/layout.js": "/dist/js/layout.js",
    "/dist/css/app.css": "/dist/css/app.css",
    "/dist/css/preloader/preloader.css": "/dist/css/preloader/preloader.css",
    "/dist/css/report/report.css": "/dist/css/report/report.css",
    "/dist/js/login/login.js": "/dist/js/login/login.js",
    "/dist/js/order/create.js": "/dist/js/order/create.js",
    "/dist/js/order/detail.js": "/dist/js/order/detail.js",
    "/dist/js/order/edit.js": "/dist/js/order/edit.js",
    "/dist/js/order/index.js": "/dist/js/order/index.js",
    "/dist/js/organizations/edit.js": "/dist/js/organizations/edit.js",
    "/dist/js/organizations/index.js": "/dist/js/organizations/index.js",
    "/dist/js/pos/create.js": "/dist/js/pos/create.js",
    "/dist/js/pos/edit.js": "/dist/js/pos/edit.js",
    "/dist/js/pos/index.js": "/dist/js/pos/index.js",
    "/dist/js/product/create.js": "/dist/js/product/create.js",
    "/dist/js/product/detail.js": "/dist/js/product/detail.js",
    "/dist/js/product/edit.js": "/dist/js/product/edit.js",
    "/dist/js/product/index.js": "/dist/js/product/index.js",
    "/dist/js/report/products.js": "/dist/js/report/products.js",
    "/dist/js/report/sales.js": "/dist/js/report/sales.js",
    "/dist/js/sale/create.js": "/dist/js/sale/create.js",
    "/dist/js/sale/detail.js": "/dist/js/sale/detail.js",
    "/dist/js/sale/edit.js": "/dist/js/sale/edit.js",
    "/dist/js/sale/fastCreate.js": "/dist/js/sale/fastCreate.js",
    "/dist/js/sale/index.js": "/dist/js/sale/index.js",
    "/dist/js/serviceType/create.js": "/dist/js/serviceType/create.js",
    "/dist/js/serviceType/edit.js": "/dist/js/serviceType/edit.js",
    "/dist/js/serviceType/index.js": "/dist/js/serviceType/index.js",
    "/dist/js/supplies/create.js": "/dist/js/supplies/create.js",
    "/dist/js/supplies/detail.js": "/dist/js/supplies/detail.js",
    "/dist/js/supplies/edit.js": "/dist/js/supplies/edit.js",
    "/dist/js/supplies/index.js": "/dist/js/supplies/index.js",
    "/dist/js/user/create.js": "/dist/js/user/create.js",
    "/dist/js/user/details.js": "/dist/js/user/details.js",
    "/dist/js/user/edit.js": "/dist/js/user/edit.js",
    "/dist/js/user/index.js": "/dist/js/user/index.js",
    "/dist/js/workUnit/create.js": "/dist/js/workUnit/create.js",
    "/dist/js/workUnit/edit.js": "/dist/js/workUnit/edit.js",
    "/dist/js/workUnit/index.js": "/dist/js/workUnit/index.js"
}
